…
``` r
pups_df = janitor::clean_names(pups_df)
```

## `select`

Let’s select some columns

``` r
select(litters_df, group, litter_number) 
```

    ## # A tibble: 49 × 2
    ##    group litter_number  
    ##    <chr> <chr>          
    ##  1 Con7  #85            
    ##  2 Con7  #1/2/95/2      
    ##  3 Con7  #5/5/3/83/3-3  
    ##  4 Con7  #5/4/2/95/2    
    ##  5 Con7  #4/2/95/3-3    
    ##  6 Con7  #2/2/95/3-2    
    ##  7 Con7  #1/5/3/83/3-3/2
    ##  8 Con8  #3/83/3-3      
    ##  9 Con8  #2/95/3        
    ## 10 Con8  #3/5/2/2/95    
    ## # … with 39 more rows

``` r
select(litters_df, group, gd0_weight, gd18_weight)
```

    ## # A tibble: 49 × 3
    ##    group gd0_weight gd18_weight
    ##    <chr>      <dbl>       <dbl>
    ##  1 Con7        19.7        34.7
    ##  2 Con7        27          42  
    ##  3 Con7        26          41.4
    ##  4 Con7        28.5        44.1
    ##  5 Con7        NA          NA  
    ##  6 Con7        NA          NA  
    ##  7 Con7        NA          NA  
    ##  8 Con8        NA          NA  
    ##  9 Con8        NA          NA  
    ## 10 Con8        28.5        NA  
    ## # … with 39 more rows

``` r
select(litters_df, group, gd0_weight:gd_of_birth)
```

    ## # A tibble: 49 × 4
    ##    group gd0_weight gd18_weight gd_of_birth
    ##    <chr>      <dbl>       <dbl>       <dbl>
    ##  1 Con7        19.7        34.7          20
    ##  2 Con7        27          42            19
    ##  3 Con7        26          41.4          19
    ##  4 Con7        28.5        44.1          19
    ##  5 Con7        NA          NA            20
    ##  6 Con7        NA          NA            20
    ##  7 Con7        NA          NA            20
    ##  8 Con8        NA          NA            20
    ##  9 Con8        NA          NA            20
    ## 10 Con8        28.5        NA            20
    ## # … with 39 more rows
…
